| **Geltungsbereich**,"| Dieses Dokument gilt für Sie als Mitarbeiter und leitender Angestellter sowie als Mitglied der Geschäftsleitung der ndaal Gesellschaft für Sicherheit in der Informationstechnik mbH & Co KG "
| **Aufbewahrungsfrist**,"| 4 Jahre"
| **Gültig ab**,"| ..........."
| **Nächster Review-Termin**,"| ..........."
| **Version**,"| 0.1.x"
| **Klassifizierung**,"| Informationssicherheit"
| **Autorisiert vom**,"| ..."
| **Vertraulichkeitsstufe**,"| Intern"
| **Autorisiert am**,"| ............."